196.12.138.85 - - [11/Feb/2019:17:53:53 +0000] "GET / HTTP/1.1" 200 11286
196.12.138.85 - - [11/Feb/2019:17:53:54 +0000] "GET /tomcat.css HTTP/1.1" 200 5581
196.12.138.85 - - [11/Feb/2019:17:53:54 +0000] "GET /tomcat.png HTTP/1.1" 200 5103
196.12.138.85 - - [11/Feb/2019:17:53:54 +0000] "GET /bg-middle.png HTTP/1.1" 200 1918
196.12.138.85 - - [11/Feb/2019:17:53:55 +0000] "GET /bg-nav.png HTTP/1.1" 200 1401
196.12.138.85 - - [11/Feb/2019:17:53:55 +0000] "GET /bg-upper.png HTTP/1.1" 200 3103
196.12.138.85 - - [11/Feb/2019:17:53:55 +0000] "GET /bg-button.png HTTP/1.1" 200 713
196.12.138.85 - - [11/Feb/2019:17:53:55 +0000] "GET /asf-logo-wide.svg HTTP/1.1" 200 27235
196.12.138.85 - - [11/Feb/2019:17:54:04 +0000] "GET /manager/html HTTP/1.1" 401 2473
196.12.138.85 - - [11/Feb/2019:17:59:47 +0000] "GET / HTTP/1.1" 200 11286
196.12.138.85 - - [11/Feb/2019:17:59:49 +0000] "GET /manager/html HTTP/1.1" 401 2473
196.12.138.85 - deploi [11/Feb/2019:18:00:18 +0000] "GET /manager/html HTTP/1.1" 200 16459
196.12.138.85 - - [11/Feb/2019:18:00:19 +0000] "GET /manager/images/tomcat.gif HTTP/1.1" 200 2066
196.12.138.85 - - [11/Feb/2019:18:00:19 +0000] "GET /manager/images/asf-logo.svg HTTP/1.1" 200 20486
